maze/simulation/qsim/maze.msim.vcd
$comment
	File created using the following command:
		vcd file maze.msim.vcd -direction
$end
$date
	Tue Dec 25 22:34:33 2018
$end
$version
	ModelSim Version 10.5b
$end
$timescale
	1ps
$end

$scope module countdown_vlg_vec_tst $end
$var reg 1 ! but $end
$var reg 1 " clk $end
$var reg 1 # suc $end
$var wire 1 $ one [3] $end
$var wire 1 % one [2] $end
$var wire 1 & one [1] $end
$var wire 1 ' one [0] $end
$var wire 1 ( ten [3] $end
$var wire 1 ) ten [2] $end
$var wire 1 * ten [1] $end
$var wire 1 + ten [0] $end
$var wire 1 , time1 [4] $end
$var wire 1 - time1 [3] $end
$var wire 1 . time1 [2] $end
$var wire 1 / time1 [1] $end
$var wire 1 0 time1 [0] $end

$scope module i1 $end
$var wire 1 1 gnd $end
$var wire 1 2 vcc $end
$var wire 1 3 unknown $end
$var tri1 1 4 devclrn $end
$var tri1 1 5 devpor $end
$var tri1 1 6 devoe $end
$var wire 1 7 Add0~20 $end
$var wire 1 8 clk~combout $end
$var wire 1 9 suc~combout $end
$var wire 1 : Add0~22_cout $end
$var wire 1 ; Add0~0_combout $end
$var wire 1 < but~combout $end
$var wire 1 = time1[1]~reg0_regout $end
$var wire 1 > Add0~2 $end
$var wire 1 ? Add0~5_combout $end
$var wire 1 @ time1[2]~reg0_regout $end
$var wire 1 A Add0~7 $end
$var wire 1 B Add0~10_combout $end
$var wire 1 C time1[3]~reg0_regout $end
$var wire 1 D Add0~12 $end
$var wire 1 E Add0~15_combout $end
$var wire 1 F time1[4]~reg0_regout $end
$var wire 1 G Equal0~0_combout $end
$var wire 1 H always1~0_combout $end
$var wire 1 I Add1~45_combout $end
$var wire 1 J Add1~2 $end
$var wire 1 K Add1~10_combout $end
$var wire 1 L Add1~12 $end
$var wire 1 M Add1~5_combout $end
$var wire 1 N Add1~7 $end
$var wire 1 O Add1~50_combout $end
$var wire 1 P Add1~52 $end
$var wire 1 Q Add1~55_combout $end
$var wire 1 R Add1~57 $end
$var wire 1 S Add1~40_combout $end
$var wire 1 T Add1~42 $end
$var wire 1 U Add1~60_combout $end
$var wire 1 V Add1~62 $end
$var wire 1 W Add1~65_combout $end
$var wire 1 X Add1~67 $end
$var wire 1 Y Add1~70_combout $end
$var wire 1 Z Add1~72 $end
$var wire 1 [ Add1~75_combout $end
$var wire 1 \ Add1~77 $end
$var wire 1 ] Add1~80_combout $end
$var wire 1 ^ Add1~82 $end
$var wire 1 _ Add1~95_combout $end
$var wire 1 ` Add1~97 $end
$var wire 1 a Add1~85_combout $end
$var wire 1 b Add1~87 $end
$var wire 1 c Add1~90_combout $end
$var wire 1 d Equal1~5_combout $end
$var wire 1 e Add1~92 $end
$var wire 1 f Add1~100_combout $end
$var wire 1 g Add1~102 $end
$var wire 1 h Add1~105_combout $end
$var wire 1 i Add1~107 $end
$var wire 1 j Add1~110_combout $end
$var wire 1 k Add1~112 $end
$var wire 1 l Add1~115_combout $end
$var wire 1 m Equal1~6_combout $end
$var wire 1 n Add1~117 $end
$var wire 1 o Add1~120_combout $end
$var wire 1 p Add1~122 $end
$var wire 1 q Add1~125_combout $end
$var wire 1 r Add1~127 $end
$var wire 1 s Add1~130_combout $end
$var wire 1 t Add1~132 $end
$var wire 1 u Add1~135_combout $end
$var wire 1 v Equal1~7_combout $end
$var wire 1 w Add1~137 $end
$var wire 1 x Add1~140_combout $end
$var wire 1 y Add1~142 $end
$var wire 1 z Add1~145_combout $end
$var wire 1 { Add1~147 $end
$var wire 1 | Add1~150_combout $end
$var wire 1 } Add1~152 $end
$var wire 1 ~ Add1~155_combout $end
$var wire 1 !! Equal1~8_combout $end
$var wire 1 "! Equal1~9_combout $end
$var wire 1 #! Add1~47 $end
$var wire 1 $! Add1~35_combout $end
$var wire 1 %! Add1~37 $end
$var wire 1 &! Add1~30_combout $end
$var wire 1 '! Add1~32 $end
$var wire 1 (! Add1~25_combout $end
$var wire 1 )! Add1~27 $end
$var wire 1 *! Add1~20_combout $end
$var wire 1 +! Add1~22 $end
$var wire 1 ,! Add1~15_combout $end
$var wire 1 -! Add1~17 $end
$var wire 1 .! Add1~0_combout $end
$var wire 1 /! Equal1~0_combout $end
$var wire 1 0! Equal1~1_combout $end
$var wire 1 1! Equal1~2_combout $end
$var wire 1 2! Equal1~3_combout $end
$var wire 1 3! Equal1~4_combout $end
$var wire 1 4! div_clk~regout $end
$var wire 1 5! time1[0]~reg0_regout $end
$var wire 1 6! t1|one [3] $end
$var wire 1 7! t1|one [2] $end
$var wire 1 8! t1|one [1] $end
$var wire 1 9! t1|one [0] $end
$var wire 1 :! t1|ten [3] $end
$var wire 1 ;! t1|ten [2] $end
$var wire 1 <! t1|ten [1] $end
$var wire 1 =! t1|ten [0] $end
$var wire 1 >! time_count [31] $end
$var wire 1 ?! time_count [30] $end
$var wire 1 @! time_count [29] $end
$var wire 1 A! time_count [28] $end
$var wire 1 B! time_count [27] $end
$var wire 1 C! time_count [26] $end
$var wire 1 D! time_count [25] $end
$var wire 1 E! time_count [24] $end
$var wire 1 F! time_count [23] $end
$var wire 1 G! time_count [22] $end
$var wire 1 H! time_count [21] $end
$var wire 1 I! time_count [20] $end
$var wire 1 J! time_count [19] $end
$var wire 1 K! time_count [18] $end
$var wire 1 L! time_count [17] $end
$var wire 1 M! time_count [16] $end
$var wire 1 N! time_count [15] $end
$var wire 1 O! time_count [14] $end
$var wire 1 P! time_count [13] $end
$var wire 1 Q! time_count [12] $end
$var wire 1 R! time_count [11] $end
$var wire 1 S! time_count [10] $end
$var wire 1 T! time_count [9] $end
$var wire 1 U! time_count [8] $end
$var wire 1 V! time_count [7] $end
$var wire 1 W! time_count [6] $end
$var wire 1 X! time_count [5] $end
$var wire 1 Y! time_count [4] $end
$var wire 1 Z! time_count [3] $end
$var wire 1 [! time_count [2] $end
$var wire 1 \! time_count [1] $end
$var wire 1 ]! time_count [0] $end
$upscope $end
$upscope $end
$enddefinitions $end
#0
$dumpvars
0!
0"
0#
0'
0&
0%
0$
0+
0*
0)
0(
00
1/
1.
1-
1,
01
12
x3
14
15
16
17
08
09
0:
0;
0<
0=
0>
1?
0@
1A
1B
0C
0D
1E
0F
0G
1H
1I
0J
0K
1L
0M
0N
0O
1P
0Q
0R
0S
1T
0U
0V
0W
1X
0Y
0Z
0[
1\
0]
0^
0_
1`
0a
0b
0c
0d
1e
0f
0g
0h
1i
0j
0k
0l
0m
1n
0o
0p
0q
1r
0s
0t
0u
0v
1w
0x
0y
0z
1{
0|
0}
0~
1!!
0"!
0#!
0$!
1%!
0&!
0'!
0(!
1)!
0*!
0+!
0,!
1-!
0.!
0/!
10!
01!
02!
03!
04!
05!
09!
08!
07!
06!
0=!
0<!
z;!
z:!
0]!
0\!
0[!
0Z!
0Y!
0X!
0W!
0V!
0U!
0T!
0S!
0R!
0Q!
0P!
0O!
0N!
0M!
0L!
0K!
0J!
0I!
0H!
0G!
0F!
0E!
0D!
0C!
0B!
0A!
0@!
0?!
0>!
$end
#5000
1"
18
1<!
1=!
1]!
1#!
0I
1*
1+
1$!
#10000
0"
08
#15000
1"
18
1\!
0]!
00!
0%!
0$!
0#!
1I
1&!
1%!
1$!
0&!
#20000
0"
08
#25000
1"
18
1]!
1#!
0I
0%!
0$!
1&!
#30000
0"
08
#35000
1"
18
1[!
0\!
0]!
1'!
0&!
1%!
1$!
0#!
1I
1(!
0'!
1&!
0$!
0(!
#40000
0"
08
#45000
1"
18
1]!
1#!
0I
1$!
#50000
0"
08
#55000
1"
18
1\!
0]!
0%!
0$!
0#!
1I
1'!
0&!
1%!
1$!
1(!
0'!
1&!
0(!
#60000
0"
08
#65000
1"
18
1]!
1#!
0I
0%!
0$!
1'!
0&!
1(!
#70000
0"
08
#75000
1"
18
1Z!
0[!
0\!
0]!
0)!
0(!
0'!
1&!
1%!
1$!
0#!
1I
1*!
1)!
1(!
0&!
0$!
0*!
#80000
0"
08
#85000
1"
18
1]!
1#!
0I
1$!
#90000
0"
08
#95000
1"
18
1\!
0]!
0%!
0$!
0#!
1I
1&!
1%!
1$!
0&!
#100000
0"
08
#105000
1"
18
1]!
1#!
0I
0%!
0$!
1&!
#110000
0"
08
#115000
1"
18
1[!
0\!
0]!
1'!
0&!
1%!
1$!
0#!
1I
0)!
0(!
0'!
1&!
0$!
1*!
1)!
1(!
0*!
#120000
0"
08
#125000
1"
18
1]!
1#!
0I
1$!
#130000
0"
08
#135000
1"
18
1\!
0]!
0%!
0$!
0#!
1I
1'!
0&!
1%!
1$!
0)!
0(!
0'!
1&!
1*!
1)!
1(!
0*!
#140000
0"
08
#145000
1"
18
1]!
1#!
0I
0%!
0$!
1'!
0&!
0)!
0(!
1*!
#150000
0"
08
#155000
1"
18
1Y!
0Z!
0[!
0\!
0]!
1+!
0*!
1)!
1(!
0'!
1&!
1%!
1$!
0#!
1I
1,!
0+!
1*!
0(!
0&!
0$!
0,!
#160000
0"
08
#165000
1"
18
1]!
1#!
0I
1$!
#170000
0"
08
#175000
1"
18
1\!
0]!
0%!
0$!
0#!
1I
1&!
1%!
1$!
0&!
#180000
0"
08
#185000
1"
18
1]!
1#!
0I
0%!
0$!
1&!
#190000
0"
08
#195000
1"
18
1[!
0\!
0]!
1'!
0&!
1%!
1$!
0#!
1I
1(!
0'!
1&!
0$!
0(!
#200000
0"
08
#205000
1"
18
1]!
1#!
0I
1$!
#210000
0"
08
#215000
1"
18
1\!
0]!
0%!
0$!
0#!
1I
1'!
0&!
1%!
1$!
1(!
0'!
1&!
0(!
#220000
0"
08
#225000
1"
18
1]!
1#!
0I
0%!
0$!
1'!
0&!
1(!
#230000
0"
08
#235000
1"
18
1Z!
0[!
0\!
0]!
0)!
0(!
0'!
1&!
1%!
1$!
0#!
1I
1+!
0*!
1)!
1(!
0&!
0$!
1,!
0+!
1*!
0,!
#240000
0"
08
#245000
1"
18
1]!
1#!
0I
1$!
#250000
0"
08
#255000
1"
18
1\!
0]!
0%!
0$!
0#!
1I
1&!
1%!
1$!
0&!
#260000
0"
08
#265000
1"
18
1]!
1#!
0I
0%!
0$!
1&!
#270000
0"
08
#275000
1"
18
1[!
0\!
0]!
1'!
0&!
1%!
1$!
0#!
1I
0)!
0(!
0'!
1&!
0$!
1+!
0*!
1)!
1(!
1,!
0+!
1*!
0,!
#280000
0"
08
#285000
1"
18
1]!
1#!
0I
1$!
#290000
0"
08
#295000
1"
18
1\!
0]!
0%!
0$!
0#!
1I
1'!
0&!
1%!
1$!
0)!
0(!
0'!
1&!
1+!
0*!
1)!
1(!
1,!
0+!
1*!
0,!
#300000
0"
08
#305000
1"
18
1]!
1#!
0I
0%!
0$!
1'!
0&!
0)!
0(!
1+!
0*!
1,!
#310000
0"
08
#315000
1"
18
1X!
0Y!
0Z!
0[!
0\!
0]!
0-!
0,!
10!
0+!
1*!
1)!
1(!
0'!
1&!
1%!
1$!
0#!
1I
1.!
1-!
1,!
0*!
0(!
0&!
0$!
0.!
#320000
0"
08
#325000
1"
18
1]!
1#!
0I
1$!
#330000
0"
08
#335000
1"
18
1\!
0]!
00!
0%!
0$!
0#!
1I
1&!
1%!
1$!
0&!
#340000
0"
08
#345000
1"
18
1]!
1#!
0I
0%!
0$!
1&!
#350000
0"
08
#355000
1"
18
1[!
0\!
0]!
1'!
0&!
1%!
1$!
0#!
1I
1(!
0'!
1&!
0$!
0(!
#360000
0"
08
#365000
1"
18
1]!
1#!
0I
1$!
#370000
0"
08
#375000
1"
18
1\!
0]!
0%!
0$!
0#!
1I
1'!
0&!
1%!
1$!
1(!
0'!
1&!
0(!
#380000
0"
08
#385000
1"
18
1]!
1#!
0I
0%!
0$!
1'!
0&!
1(!
#390000
0"
08
#395000
1"
18
1Z!
0[!
0\!
0]!
0)!
0(!
0'!
1&!
1%!
1$!
0#!
1I
1*!
1)!
1(!
0&!
0$!
0*!
#400000
0"
08
#405000
1"
18
1]!
1#!
0I
1$!
#410000
0"
08
#415000
1"
18
1\!
0]!
0%!
0$!
0#!
1I
1&!
1%!
1$!
0&!
#420000
0"
08
#425000
1"
18
1]!
1#!
0I
0%!
0$!
1&!
#430000
0"
08
#435000
1"
18
1[!
0\!
0]!
1'!
0&!
1%!
1$!
0#!
1I
0)!
0(!
0'!
1&!
0$!
1*!
1)!
1(!
0*!
#440000
0"
08
#445000
1"
18
1]!
1#!
0I
1$!
#450000
0"
08
#455000
1"
18
1\!
0]!
0%!
0$!
0#!
1I
1'!
0&!
1%!
1$!
0)!
0(!
0'!
1&!
1*!
1)!
1(!
0*!
#460000
0"
08
#465000
1"
18
1]!
1#!
0I
0%!
0$!
1'!
0&!
0)!
0(!
1*!
#470000
0"
08
#475000
1"
18
1Y!
0Z!
0[!
0\!
0]!
1+!
0*!
1)!
1(!
0'!
1&!
1%!
1$!
0#!
1I
0-!
0,!
0+!
1*!
0(!
0&!
0$!
1.!
1-!
1,!
0.!
#480000
0"
08
#485000
1"
18
1]!
1#!
0I
1$!
#490000
0"
08
#495000
1"
18
1\!
0]!
0%!
0$!
0#!
1I
1&!
1%!
1$!
0&!
#500000
0"
08
#505000
1"
18
1]!
1#!
0I
0%!
0$!
1&!
#510000
0"
08
#515000
1"
18
1[!
0\!
0]!
1'!
0&!
1%!
1$!
0#!
1I
1(!
0'!
1&!
0$!
0(!
#520000
0"
08
#525000
1"
18
1]!
1#!
0I
1$!
#530000
0"
08
#535000
1"
18
1\!
0]!
0%!
0$!
0#!
1I
1'!
0&!
1%!
1$!
1(!
0'!
1&!
0(!
#540000
0"
08
#545000
1"
18
1]!
1#!
0I
0%!
0$!
1'!
0&!
1(!
#550000
0"
08
#555000
1"
18
1Z!
0[!
0\!
0]!
0)!
0(!
0'!
1&!
1%!
1$!
0#!
1I
1+!
0*!
1)!
1(!
0&!
0$!
0-!
0,!
0+!
1*!
1.!
1-!
1,!
0.!
#560000
0"
08
#565000
1"
18
1]!
1#!
0I
1$!
#570000
0"
08
#575000
1"
18
1\!
0]!
0%!
0$!
0#!
1I
1&!
1%!
1$!
0&!
#580000
0"
08
#585000
1"
18
1]!
1#!
0I
0%!
0$!
1&!
#590000
0"
08
#595000
1"
18
1[!
0\!
0]!
1'!
0&!
1%!
1$!
0#!
1I
0)!
0(!
0'!
1&!
0$!
1+!
0*!
1)!
1(!
0-!
0,!
0+!
1*!
1.!
1-!
1,!
0.!
#600000
0"
08
#605000
1"
18
1]!
1#!
0I
1$!
#610000
0"
08
#615000
1"
18
1\!
0]!
0%!
0$!
0#!
1I
1'!
0&!
1%!
1$!
0)!
0(!
0'!
1&!
1+!
0*!
1)!
1(!
0-!
0,!
0+!
1*!
1.!
1-!
1,!
0.!
#620000
0"
08
#625000
1"
18
1]!
1#!
0I
0%!
0$!
1'!
0&!
0)!
0(!
1+!
0*!
0-!
0,!
1.!
#630000
0"
08
#635000
1"
18
1W!
0X!
0Y!
0Z!
0[!
0\!
0]!
1/!
1J
0.!
1-!
1,!
10!
0+!
1*!
1)!
1(!
0'!
1&!
1%!
1$!
0#!
1I
1K
0J
1.!
0,!
0*!
0(!
0&!
0$!
0K
#640000
0"
08
#645000
1"
18
1]!
1#!
0I
1$!
#650000
0"
08
#655000
1"
18
1\!
0]!
00!
0%!
0$!
0#!
1I
1&!
1%!
1$!
0&!
#660000
0"
08
#665000
1"
18
1]!
1#!
0I
0%!
0$!
1&!
#670000
0"
08
#675000
1"
18
1[!
0\!
0]!
1'!
0&!
1%!
1$!
0#!
1I
1(!
0'!
1&!
0$!
0(!
#680000
0"
08
#685000
1"
18
1]!
1#!
0I
1$!
#690000
0"
08
#695000
1"
18
1\!
0]!
0%!
0$!
0#!
1I
1'!
0&!
1%!
1$!
1(!
0'!
1&!
0(!
#700000
0"
08
#705000
1"
18
1]!
1#!
0I
0%!
0$!
1'!
0&!
1(!
#710000
0"
08
#715000
1"
18
1Z!
0[!
0\!
0]!
0)!
0(!
0'!
1&!
1%!
1$!
0#!
1I
1*!
1)!
1(!
0&!
0$!
0*!
#720000
0"
08
#725000
1"
18
1]!
1#!
0I
1$!
#730000
0"
08
#735000
1"
18
1\!
0]!
0%!
0$!
0#!
1I
1&!
1%!
1$!
0&!
#740000
0"
08
#745000
1"
18
1]!
1#!
0I
0%!
0$!
1&!
#750000
0"
08
#755000
1"
18
1[!
0\!
0]!
1'!
0&!
1%!
1$!
0#!
1I
0)!
0(!
0'!
1&!
0$!
1*!
1)!
1(!
0*!
#760000
0"
08
#765000
1"
18
1]!
1#!
0I
1$!
#770000
0"
08
#775000
1"
18
1\!
0]!
0%!
0$!
0#!
1I
1'!
0&!
1%!
1$!
0)!
0(!
0'!
1&!
1*!
1)!
1(!
0*!
#780000
0"
08
#785000
1"
18
1]!
1#!
0I
0%!
0$!
1'!
0&!
0)!
0(!
1*!
#790000
0"
08
#795000
1"
18
1Y!
0Z!
0[!
0\!
0]!
1+!
0*!
1)!
1(!
0'!
1&!
1%!
1$!
0#!
1I
1,!
0+!
1*!
0(!
0&!
0$!
0,!
#800000
0"
08
#805000
1"
18
1]!
1#!
0I
1$!
#810000
0"
08
#815000
1"
18
1\!
0]!
0%!
0$!
0#!
1I
1&!
1%!
1$!
0&!
#820000
0"
08
#825000
1"
18
1]!
1#!
0I
0%!
0$!
1&!
#830000
0"
08
#835000
1"
18
1[!
0\!
0]!
1'!
0&!
1%!
1$!
0#!
1I
1(!
0'!
1&!
0$!
0(!
#840000
0"
08
#845000
1"
18
1]!
1#!
0I
1$!
#850000
0"
08
#855000
1"
18
1\!
0]!
0%!
0$!
0#!
1I
1'!
0&!
1%!
1$!
1(!
0'!
1&!
0(!
#860000
0"
08
#865000
1"
18
1]!
1#!
0I
0%!
0$!
1'!
0&!
1(!
#870000
0"
08
#875000
1"
18
1Z!
0[!
0\!
0]!
0)!
0(!
0'!
1&!
1%!
1$!
0#!
1I
1+!
0*!
1)!
1(!
0&!
0$!
1,!
0+!
1*!
0,!
#880000
0"
08
#885000
1"
18
1]!
1#!
0I
1$!
#890000
0"
08
#895000
1"
18
1\!
0]!
0%!
0$!
0#!
1I
1&!
1%!
1$!
0&!
#900000
0"
08
#905000
1"
18
1]!
1#!
0I
0%!
0$!
1&!
#910000
0"
08
#915000
1"
18
1[!
0\!
0]!
1'!
0&!
1%!
1$!
0#!
1I
0)!
0(!
0'!
1&!
0$!
1+!
0*!
1)!
1(!
1,!
0+!
1*!
0,!
#920000
0"
08
#925000
1"
18
1]!
1#!
0I
1$!
#930000
0"
08
#935000
1"
18
1\!
0]!
0%!
0$!
0#!
1I
1'!
0&!
1%!
1$!
0)!
0(!
0'!
1&!
1+!
0*!
1)!
1(!
1,!
0+!
1*!
0,!
#940000
0"
08
#945000
1"
18
1]!
1#!
0I
0%!
0$!
1'!
0&!
0)!
0(!
1+!
0*!
1,!
#950000
0"
08
#955000
1"
18
1X!
0Y!
0Z!
0[!
0\!
0]!
0/!
0-!
0,!
10!
0+!
1*!
1)!
1(!
0'!
1&!
1%!
1$!
0#!
1I
1J
0.!
1-!
1,!
0*!
0(!
0&!
0$!
1K
0J
1.!
0K
#960000
0"
08
#965000
1"
18
1]!
1#!
0I
1$!
#970000
0"
08
#975000
1"
18
1\!
0]!
00!
0%!
0$!
0#!
1I
1&!
1%!
1$!
0&!
#980000
0"
08
#985000
1"
18
1]!
1#!
0I
0%!
0$!
1&!
#990000
0"
08
#995000
1"
18
1[!
0\!
0]!
1'!
0&!
1%!
1$!
0#!
1I
1(!
0'!
1&!
0$!
0(!
